1 2
1 3
2 4
2 5
2 6
2 7
3 8
3 9
4 10
4 11
4 12
5 13
5 14
5 15
5 16
6 17
7 18
7 19
8 20
8 21
8 22
8 23
8 24
8 25
9 26
9 27
9 28
10 29
10 30
11 31
11 32
11 33
11 34
12 35
12 36
12 37
12 38
12 39
12 40
12 41
12 42
12 43
13 44
13 45
13 46
14 47
14 48
14 49
14 50
14 51
15 52